env\Scripts\activate
deactivate

python manage.py runserver
http://127.0.0.1:8000/

postMam/browser: for CRUD operation:
{
    "users": "http://127.0.0.1:8000/users/",
    "groups": "http://127.0.0.1:8000/groups/"
}